INDEX VERSION 1.131+W:\Cursos_Udemy\Spring Boot, Hibernate, REST, Ionic, S3, Mysql, MongoDB\.metadata\.plugins\org.eclipse.jdt.core
3431206992.index
1772126714.index
482592715.index
3062072888.index
757318262.index
3886921868.index
1826010312.index
708468558.index
157618037.index
391193547.index
2129141562.index
2116833806.index
1818937789.index
3285699644.index
1802247155.index
1356346384.index
1570971536.index
2165558358.index
2185865794.index
113500155.index
3217895327.index
2496764586.index
1870790248.index
1550689997.index
890284303.index
1753198656.index
1010157922.index
341016336.index
3713197707.index
1895370972.index
3824954049.index
3492063833.index
2889730980.index
1764791762.index
4169553081.index
2426709229.index
3875377760.index
3809688352.index
3227094123.index
2073549455.index
2925731155.index
792634074.index
3186151465.index
1943750067.index
1941915505.index
2542323088.index
1999515668.index
560202801.index
2686119760.index
1945191717.index
2529762354.index
1004660258.index
3492156904.index
2349944255.index
3149849529.index
4230012546.index
1508213159.index
1781961011.index
2321476853.index
4106490928.index
3983638186.index
619894536.index
1017581377.index
1356530880.index
3380473279.index
2431133421.index
618739002.index
3033733994.index
2967099640.index
2721840759.index
2057770796.index
1161063810.index
1683118001.index
63732813.index
1741636281.index
2796292941.index
1929103769.index
37643949.index
1865797976.index
535768922.index
3391135610.index
947285846.index
2621462864.index
1905488695.index
1596374438.index
2048781626.index
1359857450.index
3655534601.index
